
Name,Code,Email,Phone,Address,Location,Status
"asdsd asf",5656,nnn@gmail.com,7412589630,"ddg, adsgsdg, dsg, dg, USA - 346",Hinjewadi,Active
"dghh sdhdh",589,nnn@gmail.co,8479632145,"fbfdh, fhfh, dfj, dfj, USA - 5475",Columbus,Active
"fhdfshdf sdhdh",564,nmnm@gmail.com,5478963214,"dfh, dfh, dfj, dfj, USA - 4565","Farnham Resvoir",Active
"dgdsg sdgdsh",7878,rtrtrtrt@gmail.com,7945613804,"dg, sdgh, sdh, sdh, USA - 3476",Columbus,Active
"Sarita_Con Mankar",785,vrushali.c@exceptionaire.co,7857857859,"Baner, , Pune, Maharashtra, India - 748585",Hinjewadi,Active
"Chuck Roach",croach,forrest@dianedata.com,4139674437,"1276 PATRILL HOLLOW RD, , Ware, MA, USA - 1082","South Dam",Active
"Test Test",Test123,test12345@gmail.com,1223344566,"Test, Test, Test, Test, USA - 12345","Farnham Resvoir",Active
"Maitreya Dewal",Test1,maitreya@exceptionaire.com,1234567890,"Test123, Test123, Columbus, Ohio, USA - 43085",Columbus,Active
"Shop[ Shop",shop,strongtowerservice@gmail.com,5088880000,"2 Washington Circle, , Sandwich, MA, USA - 02563",NA,Active
"wertyuiop qwertyuio",789,testingetpl123@mailinator.com,7894561230,"werwer, wer, wer, Massachusettes, USA - 456123",NA,Active
"Forrest Ferrill",ferrill,forrest@frogmendivers.com,5084200700,"10 Orchard Way, , Sandwichtest, Ma, Usa - 2563",NA,Active
"Rob Ruggles",Marine,rob.ruggles@roachsitework.com,4135308362,"12 Main Street 12 Main Street 12 Main Street 12 Main Street, PO Box 123 PO Box 123 PO Box 123 PO Box 123 PO Box 123 PO Box 123 PO Box 123, Boston, MA, usa - 2563",NA,Active
